{
  "project_info": {
    "project_number": "1060667651893",
    "project_id": "realestate-27075",
    "storage_bucket": "realestate-27075.appspot.com"
  },
  "client": [
    {
      "client_info": {
        "mobilesdk_app_id": "1:1060667651893:android:55898b40d7f88d8fd9fe7c",
        "android_client_info": {
          "package_name": "com.aait.realestateapp"
        }
      },
      "oauth_client": [
        {
          "client_id": "1060667651893-d23fvuteurksshpb04ckrdhg0i7vatsh.apps.googleusercontent.com",
          "client_type": 3
        }
      ],
      "api_key": [
        {
          "current_key": "AIzaSyD4jEyVtJ_HSbl_FkL_o5fKuyW0LMXHWos"
        }
      ],
      "services": {
        "appinvite_service": {
          "other_platform_oauth_client": [
            {
              "client_id": "1060667651893-d23fvuteurksshpb04ckrdhg0i7vatsh.apps.googleusercontent.com",
              "client_type": 3
            }
          ]
        }
      }
    }
  ],
  "configuration_version": "1"
}